{
  "exchange": {
    "git-commit": "6c52031a5e759600e8c3cb60b8901900d3daf2df",
    "rootfs-hash": "sha256:4c941f571cf635920b95e0a954a97a09620a24bcb0622f180baee599ad8453cb",
    "rootfs-url": "docker://us-docker.pkg.dev/flywheel-exchange/gear-exchange/flywheel-export-rois:1.1.11"
  },
  "gear": {
    "author": "Flywheel SSE",
    "command": "python3.7 /flywheel/v0/run.py",
    "config": {
      "dry_run": {
        "default": false,
        "description": "Only log what changes would be made, do not update anything.",
        "type": "boolean"
      },
      "gear_log_level": {
        "default": "INFO",
        "description": "The level at which the gear will log.",
        "enum": [
          "INFO",
          "DEBUG"
        ],
        "type": "string"
      }
    },
    "custom": {
      "flywheel": {
        "classification": {
          "function": [
            "Export"
          ],
          "modality": [
            "Any"
          ],
          "organ": [
            "Any"
          ],
          "species": [
            "Phantom",
            "Human",
            "Animal"
          ],
          "therapeutic_area": [
            "Any"
          ]
        },
        "suite": "Export"
      },
      "gear-builder": {
        "category": "analysis",
        "image": "flywheel/export-rois:1.1.11"
      }
    },
    "description": "A gear for exporting ROI's saved in the OHIF viewer to CSV's",
    "environment": {},
    "inputs": {
      "api-key": {
        "base": "api-key",
        "read-only": false
      }
    },
    "label": "Export ROIs",
    "license": "MIT",
    "maintainer": "Flywheel <support@flywheel.io>",
    "name": "export-rois",
    "source": "https://github.com/flywheel-apps/ROI_export",
    "url": "https://github.com/flywheel-apps/ROI_export",
    "version": "1.1.11"
  },
  "invocation-schema": {
    "$schema": "http://json-schema.org/draft-04/schema#",
    "properties": {
      "config": {
        "additionalProperties": false,
        "properties": {
          "dry_run": {
            "default": false,
            "type": "boolean"
          },
          "gear_log_level": {
            "default": "INFO",
            "enum": [
              "INFO",
              "DEBUG"
            ],
            "type": "string"
          }
        },
        "required": [
          "gear_log_level",
          "dry_run"
        ],
        "type": "object"
      },
      "inputs": {
        "properties": {
          "api-key": {
            "type": "object"
          }
        },
        "required": [
          "api-key"
        ],
        "type": "object"
      }
    },
    "required": [
      "config",
      "inputs"
    ],
    "title": "Invocation manifest for Export ROIs",
    "type": "object"
  }
}
