{
  "exchange": {
    "git-commit": "6c52031a5e759600e8c3cb60b8901900d3daf2df",
    "rootfs-hash": "sha256:fbb5ea3285385860ff6348a1120e7bee8a8f2e5feb17bf9575c97ba59815b3a9",
    "rootfs-url": "docker://us-docker.pkg.dev/flywheel-exchange/gear-exchange/flywheel-tbi-extractor:0.1.5_0.3.2"
  },
  "gear": {
    "author": "Flywheel",
    "cite": "https://doi.org/10.1371/journal.pone.0214775",
    "command": "python run.py",
    "config": {
      "debug": {
        "default": false,
        "description": "Log verbosity.",
        "type": "boolean"
      },
      "exclude_targets": {
        "description": "Comma-separated list of targets to exclude from the algorithm. If the number of entries is burdensome, modify the terms_of_interest in the input tab.",
        "optional": true,
        "type": "string"
      },
      "put_metadata_on_dicom": {
        "default": false,
        "description": "Gear outputs are available on the report's info under tbi-extractor. Optionally, add the metadata to the dicom file as well.",
        "type": "boolean"
      },
      "save_modifier_phrases": {
        "default": false,
        "description": "Save the lexical modifier phrases identified in the report for the resulting annotation.",
        "type": "boolean"
      },
      "save_target_phrases": {
        "default": false,
        "description": "Save the lexical target phrases identified in the report for the resulting annotation.",
        "type": "boolean"
      }
    },
    "custom": {
      "flywheel": {
        "classification": {
          "function": [
            "Report"
          ],
          "modality": [
            "Other"
          ],
          "organ": [
            "Brain"
          ],
          "species": [
            "Human"
          ],
          "therapeutic_area": [
            "Neurology"
          ]
        },
        "show-job": true,
        "suite": "Report"
      },
      "gear-builder": {
        "category": "converter",
        "image": "flywheel/tbi-extractor:0.1.5_0.3.2"
      }
    },
    "description": "Implementation of tbiExtractor for automated extraction of common data elements from radiology reports for traumatic brain injury.",
    "inputs": {
      "api-key": {
        "base": "api-key",
        "read-only": false
      },
      "radiology_report": {
        "base": "file",
        "description": "The radiology report to be annotated by tbiExtractor.",
        "optional": false,
        "type": {
          "enum": [
            "text"
          ]
        }
      },
      "terms_of_interest": {
        "base": "file",
        "description": "Comma-separated values to search for in the report. May be the default or user-specified file.",
        "optional": true,
        "type": {
          "enum": [
            "text"
          ]
        }
      }
    },
    "label": "TBI Extractor: Automated extraction of common data elements for traumatic brain injury.",
    "license": "MIT",
    "maintainer": "Flywheel <support@flywheel.io>",
    "name": "tbi-extractor",
    "source": "https://github.com/flywheel-apps/tbi-extractor",
    "url": "https://gitlab.com/flywheel-io/flywheel-apps/tbi-extractor",
    "version": "0.1.5_0.3.2"
  },
  "invocation-schema": {
    "$schema": "http://json-schema.org/draft-04/schema#",
    "properties": {
      "config": {
        "additionalProperties": false,
        "properties": {
          "debug": {
            "default": false,
            "type": "boolean"
          },
          "exclude_targets": {
            "type": "string"
          },
          "put_metadata_on_dicom": {
            "default": false,
            "type": "boolean"
          },
          "save_modifier_phrases": {
            "default": false,
            "type": "boolean"
          },
          "save_target_phrases": {
            "default": false,
            "type": "boolean"
          }
        },
        "required": [
          "debug",
          "put_metadata_on_dicom",
          "save_target_phrases",
          "save_modifier_phrases"
        ],
        "type": "object"
      },
      "inputs": {
        "properties": {
          "api-key": {
            "type": "object"
          },
          "radiology_report": {
            "properties": {
              "type": {
                "enum": [
                  "text"
                ]
              }
            },
            "type": "object"
          },
          "terms_of_interest": {
            "properties": {
              "type": {
                "enum": [
                  "text"
                ]
              }
            },
            "type": "object"
          }
        },
        "required": [
          "api-key",
          "radiology_report"
        ],
        "type": "object"
      }
    },
    "required": [
      "config",
      "inputs"
    ],
    "title": "Invocation manifest for TBI Extractor: Automated extraction of common data elements for traumatic brain injury.",
    "type": "object"
  }
}
